%YAML 1.1
%TAG !u! tag:unity3d.com,2011:
--- !u!114 &11400000
MonoBehaviour:
  m_ObjectHideFlags: 0
  m_CorrespondingSourceObject: {fileID: 0}
  m_PrefabInstance: {fileID: 0}
  m_PrefabAsset: {fileID: 0}
  m_GameObject: {fileID: 0}
  m_Enabled: 1
  m_EditorHideFlags: 0
  m_Script: {fileID: 11500000, guid: 2cd3c1a78b392894a883894a7a0a7ebc, type: 3}
  m_Name: Pizdec
  m_EditorClassIdentifier: 
  CurrentWeaponSprite: {fileID: 1808469803286354170, guid: 931b30b18c4526b459a1cab2d5b31fda, type: 3}
  BulletPrefab: {fileID: 7677802722856252443, guid: c9e842e89fb9c5c419872dd618f4375d, type: 3}
  FireRate: 10
  Damage: 6
