%YAML 1.1
%TAG !u! tag:unity3d.com,2011:
--- !u!1045 &1
EditorBuildSettings:
  m_ObjectHideFlags: 0
  serializedVersion: 2
  m_Scenes:
  - enabled: 1
    path: Assets/Scenes/GameReadyLvl/menu.unity
    guid: ca77bc2489c6629498735eeec8be47e9
  - enabled: 1
    path: Assets/Scenes/GameReadyLvl/LevelSelection.unity
    guid: 07c2a7265b0fe844c84ee2711ea6bbf2
  - enabled: 1
    path: Assets/Scenes/GameReadyLvl/StartLvl.unity
    guid: 57b28251924b8ac45a85730aac22ff08
  - enabled: 1
    path: Assets/Scenes/GameReadyLvl/Level2.unity
    guid: ff90542b7d6cd7842b08becb8542e012
  - enabled: 1
    path: Assets/Scenes/GameReadyLvl/Level3.unity
    guid: fe3ef253dddc92a40b4eaac8abdf0517
  m_configObjects: {}
